<svg width="266" height="126" viewBox="0 0 266 126" fill="none" xmlns="http://www.w3.org/2000/svg">
<path opacity="0.2" d="M0 1H192.338C203.384 1 212.338 9.9543 212.338 21V105C212.338 116.046 221.293 125 232.338 125H268" stroke="#C7C7D7"/>
</svg>
