<svg width="60" height="60" viewBox="0 0 60 60" fill="none" xmlns="http://www.w3.org/2000/svg">
<circle cx="30" cy="30" r="29.5" transform="matrix(-1 0 0 1 60 0)" stroke="#ABABAB"/>
<path d="M38.2952 30L20.0204 30" stroke="#383737" stroke-width="1.5" stroke-linecap="round" stroke-linejoin="round"/>
<path d="M29.3091 39.2887L20.0205 30.0001L29.3091 20.7115" stroke="#383737" stroke-width="1.5" stroke-linecap="round" stroke-linejoin="round"/>
</svg>
